…
twts <- rtweet::search_tweets(q="ukraine", n=500, lang="en")

# most popular words
twt_wrds <- sapply(twts$text, function(x) strsplit(x, " +")) %>%
  sapply(clean_text)
names(twt_wrds) <- 1:length(twt_wrds)

reshape2::melt(twt_wrds) %>% 
  group_by(value) %>%
  tally() %>% 
  arrange(desc(n))

## # A tibble: 3,457 × 2
##    value        n
##    <chr>    <int>
##  1 ukraine    443
##  2 russian    122
##  3 war        114
##  4 russia     112
##  5 the         79
##  6 putin       63
##  7 i           62
##  8 us          59
##  9 weapons     50
## 10 chemical    47
## # … with 3,447 more rows

# a bit more sophisticated: tf-idf
reshape2::melt(twt_wrds) %>% 
  group_by(L1, value) %>%
  tally() %>%
  tidytext::bind_tf_idf(value, L1, n) %>% 
  group_by(value) %>%
  summarise(tf_idf_unique = mean(tf_idf)) %>%
  arrange(tf_idf_unique)

## # A tibble: 3,457 × 2
##    value             tf_idf_unique
##    <chr>                     <dbl>
##  1 "ukraine"                0.0157
##  2 " is"                    0.0740
##  3 "afewpoints"             0.0740
##  4 "allowed"                0.0740
##  5 "andrewgarside3"         0.0740
##  6 "andrewknight226"        0.0740
##  7 "bazcarter15"            0.0740
##  8 "begentle50"             0.0740
##  9 "beowulfschaefer"        0.0740
## 10 "boomerish"              0.0740
## # … with 3,447 more rows
…
